{"hash":"f857916c0c4081515eebcefd499e432a60322174","data":{"entries":{"totalCount":22,"pageInfo":{"totalPages":3,"currentPage":3},"edges":[{"node":{"id":"crystal_home","title":"Circular & Self-Sufficient Homes","path":"/partners/crystal_home/","tags":[{"id":"twin","title":"twin","path":"/partners/tags/twin/"},{"id":"aci","title":"aci","path":"/partners/tags/aci/"},{"id":"farming","title":"farming","path":"/partners/tags/farming/"}],"members":[{"id":"bert_van_decraen","name":"Bert Van Decraen","image":{"type":"image","mimeType":"image/png","src":"/assets/static/bert_van_decraen.dea1acb.41a9247d08c882de145f7c11a90de49d.png","size":{"width":64,"height":64},"sizes":"(max-width: 64px) 100vw, 64px","srcset":["/assets/static/bert_van_decraen.dea1acb.41a9247d08c882de145f7c11a90de49d.png 64w"],"dataUri":"data:image/svg+xml,%3csvg fill='none' viewBox='0 0 64 64' xmlns='http://www.w3.org/2000/svg' xmlns:xlink='http://www.w3.org/1999/xlink'%3e%3cdefs%3e%3cfilter id='__svg-blur-b432c728ec65f2917e4ea7cdb5f8b496'%3e%3cfeGaussianBlur in='SourceGraphic' stdDeviation='40'/%3e%3c/filter%3e%3c/defs%3e%3cimage x='0' y='0' filter='url(%23__svg-blur-b432c728ec65f2917e4ea7cdb5f8b496)' width='64' height='64' xlink:href='data:image/png%3bbase64%2ciVBORw0KGgoAAAANSUhEUgAAAEAAAABACAIAAAAlC%2baJAAAACXBIWXMAAAsSAAALEgHS3X78AAAVU0lEQVRo3n3aafRW4xoG8PejDxaHRklCMhQZK0McmWeZp6IIOQ3meRaSIWWeIxxJSKI06DSQZYgsa7FYvljWskzHdCx8Or93X7Xb7fdfz4e99rvfZz/Pdd33dd/P/ey9G4sWLVpcaUuWLClP8tesWbOmTJly1FFHrb/%2b%2bv8o2oYbbrjJJpvssssuBx544GGHHTZy5MjbbrvtmmuuueWWWx599NFnn3122rRpL7744iuvvPLyyy%2b/%2beabs2fPnjt37qKi/WdVe%2bedd5YtW/buu%2b8uXbr07bffduKnDq%2b99pq7Jk%2bebJxnnnnm/vvvv/POO8ePH3/zzTdfeeWVF1988TnnnAPMIYccsueee3bp0qVhrLVxyHzz5s1bsGDBFVdcscEGG4RAu3btdtttt3333Xf//fc/9thjL7zwwvPOO%2b%2b0004bM2bMDTfcYMp/F830QEyfPj1M0DDOW6vawoULM6/zUPLz9ddff%2bmll5577rmHHnro4YcffvDBBydOnIgA0%2bAwbty4sWPHXnLJJSeffLKpBwwYsP322zdq6EMgHEoCzq%2b//noENt54Y8euXbu6H4G99tqLEw499NCBAwcajkmOPPLIk046acSIEf8q2kUXXWQ%2bc/PMY489NmPGDP6EEmg%2bwWfOnDl%2bvvHGGxzlLzwRQBgH/SdMmAD6HXfcAToAjHj11Vdfd911fH7QQQeZvX///o14tjT8klXNOfQLi6bDsGHD2L5Tp04IbLnllnDvvffePXv23HrrrXfYYYddd93V0U8%2b1adbt25bbLHF5ptvjupWW2218847I3bVVVc98sgjpDVz5sw5qxpKL7zwwquvvgo3jz3xxBNws/2tt94K6LXXXnvppZfyMMRnnHHGCSeccPzxxw8fPpxpDj/88L59%2bzLiGhKq2j4NeqMzIRvTPXAioUePHgwAdPfu3Xffffcjjjji6KOPNrpBd9xxx80226x9%2b/Z8RWkdOnTYdNNNEXb9uOOOgwk4EUVXjI0JPo8//vgDDzzAxrCSonH22Wcf/bfbbruddtpJpDn26dPH0Vys3q9fP952QsaEsJpA1fZlDPC1yYQUDRg0EmJpMZRx6ef888/nX74m1ttvv100s5MJAoJMe/XqpadZafemm26i7%2beff57JoX/66acp5LLLLjvzzDPlA914j6XaF40JJAyTMgqrmdeY/Olkm222cXLAAQesEQOlnHJequi9996bNGkSWxrUiGCZjAdgOuaYY4YMGcLLvCTg7rvvPjLA5IILLjjllFO4WGD8s2h77LGHI7aMDbqY5gTmR1hPUHRgFFKElW/5DR9C5Vhpx0QnnngiexmT9BFgl5UeqCKu0fCvUBPHose4nTt35oFtt92Wps3HD4MGDWJvcJlWMsWEmc2hD/UHgaZ/IJIyD0DPt2LgySefdOPgwYNxoxx2oRDI%2bA0Zuj3rrLMkUMmH/C6//HLBQGO6GYoFdVhJYFFLK7NQwsD9esMkBowOEFjUbzj2k22Yx9wsR/fC6%2bCDDxbHOmAo4nUDnf1OP/10oSztIOBIQuSnD1uysZ6sS/f0LQHgb0ZjgstMImTo0KFiyeDA6Lnffvs1yhwcuDU/JI4tNMKAXYkHAbaR/k3JqJAxOTKcQ7tm4ly%2bEnD0Si033ngjPqaXWEaNGmW5IDCJkhOsd3KOi1JCuEnBZDl69GgZiZacG6d3797mxUTG0810cgZ7cVpTQvCVBGrmL%2bPYYmkyw8mMJGTQ5BwE2IArXecWg0LDnGGlCQwGdvHss88eWzQoSQIBWV8oC614RnKUhYzANNK/8KCTQGQUhmd1oSwwzIinntzLY41yba%2birzZ/8QACbmAGqwGxkg2jnnrqqSEg57hIryACTeXELZqd8MBdd90VEVuq3YKSxSslg9yFElv4S5gJaLfrL7FeXzTkZX0rIxMgw/n8aa5ji4ZVncDiluaiugUaGk0mxZsSQIHY9FIEk3Mr27tuSgsQKNZgwQ0EDoLEQiYFcQsPCF8emDp1qvKGdQ1ioXSeVOYoHfMD/2BuBHlWNzkD1SOLpr/Z2bQuoWo6Kj2AgLH4lKU7duyIAA/CKieorgw0omjwibNzzz2XOcEFFJq7776b%2boEAKx4QGOoIHNRLqgMrgHtRJSF/gS6bQSwS/JvMQ2aYy9f8wCF6sojR2LSRYqEM3xr6sFIq3nvvvdiDbjUgG8aW%2b6A0h9TJ3lDec8891gGWU8899dRTDKwakyV5IGucngi4YhWzDEtH%2bLuCuaGCnslTtKWU0JCBFUMuxccV5tAfEypqpDCsSqhVSwiYjNVxkBwFMdn4aTgDGRFoqqV4CzYOqSUdUWJO93Ig3KYEl1QIUrkGLu%2bJSARcBFp/9SzXMUdoZIFPOc0QoFu5/dSfq2FY6YFwKIOh5gQEBGV8TX/yGjliT%2b5sDyKpyLOPFQ0TiKF3jo9UIycCAZlUQ3j8kHIIOATIAwGehAk4d%2blsQEbBgTPFNKq4xTpOdOAf97Jjo4a%2blYArthpwDC6ayeQ1eYD%2b7C2AMBmBGZ3VHcnGrGbCmYoAdSISmJCChTvaGFrCWDQeIG4Ekmex5RzjxG9qjaDP4FxnrpKA/LtWAtUVTRqV%2bISROEbaupMSRcgaHQFWdzQBP5gp6FOxSZfOTUlvIUByGLI018ktwolvxWV2LTq7yyDG1I05IHYdGeemcJ0axYPc1UyjVQnV1rJajURzMrE47ls0BEgiomQh48ZIODCbvVhKfzsVRoUARLmPCFlREcEiumFlPeEEbsGHbAxifUB%2bctF0RiNOTpihgaqwdmOzGk0Q12KgVpZGRYxtaeRuTkgYiEhBPL5oDxSNuKcWLXkmuxZk2E/CYTOymT9//ooVK5YvX25S4LiFLUSC8YMSgelFi5yyt3TM4kBalCYfgLGylFgbgWpDAA6BKwqVU1Y0cnIuWwu1iUWjHKmd8Ryt3JYqZayjc5Zje%2bQxQUB9bkCTwkdRKW94A/9ni4a/QfzEQUaOLJkJASRZgcfc0tyRrcMD1Wajo652m8WP8lS83IcAS4hOMWoCHrc/hIl4QsCClZ0uBAJGDpCL/EVXNpOuA6eCkAyEAVewrjIJAdBx0NNoVOQ6oUpHZjGXCJZLWHMNCbWGcrVlPTaW2yhBuauaFZECgwk5V5jSNAJcb1ZH4UvoJETxgsRKJHFBKUz9G6VBlq0PgVlcacNdODD8tKIlI%2bFvfHpjfvYSeOYV/dJJg10XrtnW4Qp%2bgFXMWctU7WIAIHPzvsBCgOVIiAey5U0YcAKBMZtNoPRFBmyZxAITN6rDOUcQWwrci4PjC0WTbZNPQdeZIQCwNsuhzCEmG9UHNW36obrjQUAHLqZm9TMbcKWEgANAQg2BFBEUAsSMotkPmZhwoVQLyh6cJoGmElGKr7feegBBJlOxAg9wkRgwkWybp0PWZvIjJEfVEcmZ3X61UX3YVJYVa4uErGtCkBZtGgVD6QHj5vkPm0UAeTgHvaPrqMINKL%2bnqMTECM4NAh8tMS3EyWAI8ABz5OEctkxgrjFFw58Hms%2bF5IRWDuWy0Foj%2bUswGNT%2byHpMANArKJJPTY8Ay5ke9HgAGT%2btPiRnYqtBHvKkyU4MzzlWFQYObpzdxZNcylj0aRb0ZAKGkEtIQARLhk0C4ZBW41DbcGrZoLFoz549RYKYJlzmNzqIoo3NzApEVIQMStIoEQPB/KkdhhcNJUnZFQQEsTAQ4gmkJDS3m8sUqZ8pxxrsGPPbajYWVFqrE2ro4wEnJrBnjRMkwewHUhKn0gSCN54rmhPceAlcqrUC2sQpqAS02yU0P9EAkcbYOyJEYErRGMW98jXzm4sPyc84zN98Njq/0sKh6ofWjBRurMv8skefPn0YlSRSmQpKepU30BCOoAMk66lA%2bcqU/fr1M7eNf5%2biIcCQcAwcOJAbrQmypGhOMZuHjYKY%2bgM9JT3CbGd/3KNHj6YHahxyUktNVQKuW4ngRsDcQAhH0cm5ciW9KgdShCEj7MQo44GrAAHU8mlimzuJeMCAAcoBziQG17lIVFhnBLShjIM/PgiAbrmwjMbw3bp1w4Eh1vBALR6CtRYPzvWRTym4U6dOhoPM3ERMqTiYTEqBO5txiFO0WLyh5Dcbcyf84EYg1IWYyGldunTBkHVFJ3exiLiyaBgtDyzsBN3Vs2g4uKsZA/NWNbBybI3mWvOvOCb3PLJkPyBYDnoqomPuziMDCw3NmAl6PfVHGBmG5AGA8vg24WhBQINRgdPHv3mmbQ0xMh9aBxHWZ4ei%2bdlMo3NXtSqT1oCukskrCWEg/myRjQif0CQVrlfeZanGKo%2bloESDCSUfnoEpmzXysEKRviAhQmj01J88hLifXKTOoyWhJXtyTp51I5lSgKVWE0grhfRWS6sS0EE8uJ%2bKjMh%2bjC21mU%2boUZTJzMGWLK1uYULE/OUcTxGvmoCeu8hsZNFokhvtN5iDpRk4SnOL/hiyQtyY575mkabrBOKB1pWhGgwh4ES%2bA9Q230zswePiz9LGMwTAlmbCCkTTS5pmTeBqhG5D6ERnunJdMpBMLXPGcW7MSEVkc6zOeW7ZtWvXcOAZm/WGfAJ3jqWQAn1tC1zOdXOufjRir6JxulA2vVl7r2osynIhmdcFjt27d3cXPXTu3BmarYrmIvG4RYTQW0SSxGVY2ZPAeMZQ7nVOw2qCJoGyVSVURV8lkIWipKdUBtGg8TghmY%2bpzM1ImNA9/YgKsEiILYUBMw8pGs34yzICnxt5SR8akwD4VnRBbDR5LIVDEm7Hjh11BqANAlUVtckhrbpcWP8Zjzwc6SH7DJPJKlhZ9vna8pRdi/NsTexLHPNWQXgwubzpRNK06tnuGQoBpuFY%2bsENmfiKaZgDzqaEsm1t5VANhury3MrBriVP7ExGIazFZoRhPjjwYVSY5HKRql5QGgCdB0FJu4JEH55xkVtkgig%2bj9SphTnyDLxr0RhLaEG7mkCNQzWfluavcihVpJtFDSyrsslkCVZnOeImX0Fp55oXr4SEQ2pJxiYeyhbx9FM%2bnFTtISBqBZL0ZUBRkZdiznlY0kMgCQNUhf1qAiWHqpDKgK6qqHpFT%2bmIGLK2x%2b9mSjxQNgJSU7TObBYHaPLaz1FWIWtY9cwTcwzz1F6pogPH8oMxk0DZJUK17MyePfv9999vzC5a1QNVJ1TjoURfpZFcpAY2KA5sYwLzSdJELxbhRgCNPN3PS2WCFicEltf9eQeTbxckXOiNxjk5oRxVRtALX0zcjp6dZ9MD0kgI1JxQI1AVUrX5CwGbD2hSDqRqoBlLrNBEgJDAkjcATbEAFgJclJdIeYOEXjKPK25RSuUbAB5r3749Do5GzotDVBH44IMPmgTCoeqH1lCuZaRqQ8AIREKsNJq6kqwVSxKiEpIH8poVGn2iH%2bc4g%2bJ6Xl7JLZGKozybZ9fWEITZ3sh5ME5vRmuDQNUJ61iYa2FdKsqU9A0HAqxrbkGZtMOcTItV3qxIphxCIWqHvJl04haseIa9kcRcjpJVScXFhK/roBuHtPC3kH344YeN0vylE7RWAjUV1VKqRCT4ECASJmQ2lXCeYNrcQCnmAJVh5UoZk%2b3R8C%2bNcZ2olaDwFMp8ImCyu5CvqIjH2rVrJwaMj2d2FJot20cffdQM4hqHmgdqHN5qq1kRGUzhFSdQs11BXtfJ%2bkBL7UyeVyx5pJN3BQjwCZSgcwuxyaqi34Kdx72YU3%2bHDh0ECW5%2bSgzi3rn92scff7xGDFQjYR1OqKo/xcWyZctM1r9oJKQUEwP2U3lYbV%2bGD5/oYyUeNGgQoFBCQyFSZ1508wA/qD25SIHtPA8yrDDCg3VY3S3WYH4QCUZug0A1DMp01EqgWqKGgD2kOYRj6lAT24%2bDLkHlrYctcggkw9ig5MUmQFY0J/KVPXFe5OQNHw5UR/0WeMPCrTP5YUulxlyxYsVKAtVE1OqB1oW5pBECJMSh0DMSPcgVTKVGUAIhMKlotJRXd3nNOKpo2apzSJ57E5sO9KZPVmWalHzYOxU4PpGQ62qqTz75pKGSCXQc2lySWznU9s35FsHeIt9tmYCReIORgMtjlbxlsTlkY6LPE5Q86hESfAKTNEA/0q5zlPjQSSoUBKCXxPJsXD5gIyPUPdBaF61jUasSkIVmzpyZmtEEYlRQImPdJQkSGlc0osoLaumVuvhBuhQtjklQcCODvNQk/QtcESWt5cGHYQ8rminkVi5a6YFWFdWK03Wk1GTVxYsX62DW1D/QkASJZzsisQhHO2CqBdpfeYmPSV7U6sD2rmNyQNGQZ3t1m0VN%2bhfr8hUCRuYH%2brT8sQXDNQmUrRYJbQZD7RlMnl0vXbpUZ97PQ5Q8uDUlU1meWFEIsrqSU7a1AmSXLHbpJA8BnAtrIaQ/fJZe2dONiSvDEo8xkeQi5wbk7eZ7YgvyrFmzcqwxWVuBBHe%2bOST9fPOT943Z5sonpskDUE4wDRPmkQkcpoRJByeknFvyAUpeveUzqWwDtHwsxbEZE3pmyp7JX9a4Bu0GfVpVUdWwLr2BgCPdf/75524EMU8fpGpRyzZGT/3D0vkUhB9UmvnQzdZEz2x9FAj5uDH1j4DJd155EuMWTMSxEchSjkpkGxwNXsqzj0Zp%2b5oHalFROsQJDl9%2b%2beUPP/xAxBtttBFYCTWBZTJJMOilc0eUrG64sTdL8wYOeaxrenATrHnCp%2bHARSTu3F10n1pDnJiOV/OlTz7cQLJJoKafKocSveYiJ4ibTz/9FPoff/zRoObOx3qczhXZvpgG9Hy8kre58mDMlk%2b9soPBNou3EVIFEQlYlJY4dow5TFS%2bWMgTecSYxmrQBoGq7ctzurfcfvbZZ9988813330H/W%2b//SaHsByBsiVDwmHo7BLNB72lyqz5DovWgQMxL4jErvyTmiIfm9G6UE6N7Ygtc4Crs0EkqGFFy3veQUVDcjWBkkNA5zw7f%2bvFV1999e233zL8f4v2008//f333xMmTGB7dmJFwkUgz5bzaESqGV00WnIlkZenD1KQFS1PnlO32QCh7S64uQgBKDOU/nkbYsCoyCxGc2y%2b6M7L0JqEEJBkbNi%2b%2bOKL77//Hlygf/75ZyeObP/LL7/89ddfygS2l6QJmmQJAz5WDPp8DmWdCj6GjGeoAhqljqUtn6SoOGTYbJrzKV6qVFgdA91o6ot8I5YddjTZqOafvNaV161wX3/9NZ38%2buuv/ytaQPv5xx9//Pnnn37%2b/vvvy5cvlwrMl4%2bFOdTQeX1EGGIgH3/n42dX8opFFKLBM/nSJU95FUv%2biniEzdCi4Qwx3DrHCkaOB%2bIEYfB/L/VijX6aQrMAAAAASUVORK5CYII=' /%3e%3c/svg%3e"},"path":"/team/bert_van_decraen/"}],"rank":2,"linkedin":"","excerpt":"Circular & self-sufficient homes reducing the CO2 footprint and the waste production.","image":{"type":"image","mimeType":"image/jpeg","src":"/assets/static/crystal_home.4250cd3.0fa301126b741058be5cc6fb84bdcc0e.jpg","size":{"width":800,"height":461},"sizes":"(max-width: 800px) 100vw, 800px","srcset":["/assets/static/crystal_home.1b91758.0fa301126b741058be5cc6fb84bdcc0e.jpg 480w","/assets/static/crystal_home.4250cd3.0fa301126b741058be5cc6fb84bdcc0e.jpg 800w"],"dataUri":"data:image/svg+xml,%3csvg fill='none' viewBox='0 0 800 461' xmlns='http://www.w3.org/2000/svg' xmlns:xlink='http://www.w3.org/1999/xlink'%3e%3cdefs%3e%3cfilter id='__svg-blur-eec38bd283d075cafc40a4f454484e54'%3e%3cfeGaussianBlur in='SourceGraphic' stdDeviation='40'/%3e%3c/filter%3e%3c/defs%3e%3cimage x='0' y='0' filter='url(%23__svg-blur-eec38bd283d075cafc40a4f454484e54)' width='800' height='461' xlink:href='data:image/jpeg%3bbase64%2c/9j/2wBDAAYEBQYFBAYGBQYHBwYIChAKCgkJChQODwwQFxQYGBcUFhYaHSUfGhsjHBYWICwgIyYnKSopGR8tMC0oMCUoKSj/2wBDAQcHBwoIChMKChMoGhYaKCgoKCgoKCgoKCgoKCgoKCgoKCgoKCgoKCgoKCgoKCgoKCgoKCgoKCgoKCgoKCgoKCj/wAARCAAlAEADASIAAhEBAxEB/8QAGgAAAgMBAQAAAAAAAAAAAAAAAAYDBQcCBP/EADMQAAEDAwIEBAQEBwAAAAAAAAECAwQABRESIQYTMUEiYZGhByNRcRQVQrEyUlNjgZLR/8QAGQEAAgMBAAAAAAAAAAAAAAAAAgMAAQQF/8QAHBEAAgIDAQEAAAAAAAAAAAAAAQIAEQMhMRIi/9oADAMBAAIRAxEAPwBT/KGnj8opJxnANRKsJB/g9qvYMR62utOKj%2bFW2pzbVtuBjOcZFPcayiQw25yyNYBwRg1SP672RlrkycWI/wAlelqyqCQOS2cdynetHuUa2WlvmXOZGiJ/vOBJ9OppQunH3DMHUmEJFwcH9JGhH%2byv%2bURYCUAZXixqWAOUhPmlODXaeHlH9HtS7dPiXcX9SbfFiwUdlEcxfqdval0cZ3%2bPMRKRdHluHqF4Ugj6aTtQ%2bweQipGzNEfsAQypS8pCRkmqF60uNyNBHgUnUhexyfOuonxEZuHLReYyoxyNbsTdLmOykE59Cac3ZltuUOOuzluWnHjRFwS0cd0HBHft61TSLuXTca0OSEqkxrokgAhbbGFJI%2bx3z9cdqzHj7jfiT8ZOZiXR9m3tPKabbQOUvSDgaiNycedPLnElqhuFLhUpaTuEKKzWZcRtM3KdKdYS4th5xTpSrCFJJOcd8%2b1YUzsx5U3nCig2bio4Jj0Zc95pTrfVThdBPXHffrTzB4EjyIrjrsyYnDbbgxFJA1ICuufPr3qkjNRYboKmn2UYwpIWcK36533pvs9%2bgR2pSG0ywh3ThXMDvQYIPT9qN8lbAlY8JbVzNOJ7cq0XaQyw8pTaHFISVthJKQTjI7V4JxKC0FHJ05J9Kc%2bLrcm83STIhS2NKlKcSh4lsnKjtkjAIG/Wkq/ocjy0NPBKXEJ0kJUFDbHcbGnoytyZcqOp%2buThDu1NXw8nMxONrJIkZ5TbwK8DJxg0kJWdVN/BNlnOXSJNWhLcdtWv5h3VseietEx8i4tVLGhNeuFlgXJbweaWHeYEB1KyFDvnz%2b1Z9LSYs9yKTrCFadXTNFFc/ASbBnSygCjIxhwnKUj7VCu3tHUoZC%2buoZz%2b9FFPsiKoHshIeYGpL5UB2cTqpYuLZuN2YQtWguZyQM4oopuMAWREZGJpSdSzYhRYA1IaK3B%2btZ3/AMfSm6zsMtW8S%2bUlb6hqClE%2bEfQb%2b9FFRtgQ10Z//9k=' /%3e%3c/svg%3e"},"timeToRead":2,"logo":{"type":"image","mimeType":"image/png","src":"/assets/static/logo.dc52710.31eba1b89d6d5620c451be5ee3a2afbf.png","size":{"width":200,"height":200},"sizes":"(max-width: 200px) 100vw, 200px","srcset":["/assets/static/logo.dc52710.31eba1b89d6d5620c451be5ee3a2afbf.png 200w"],"dataUri":"data:image/svg+xml,%3csvg fill='none' viewBox='0 0 200 200' xmlns='http://www.w3.org/2000/svg' xmlns:xlink='http://www.w3.org/1999/xlink'%3e%3cdefs%3e%3cfilter id='__svg-blur-71f0b9bf966180c7ea0bb71aea063329'%3e%3cfeGaussianBlur in='SourceGraphic' stdDeviation='40'/%3e%3c/filter%3e%3c/defs%3e%3cimage x='0' y='0' filter='url(%23__svg-blur-71f0b9bf966180c7ea0bb71aea063329)' width='200' height='200' xlink:href='data:image/png%3bbase64%2ciVBORw0KGgoAAAANSUhEUgAAAEAAAABACAIAAAAlC%2baJAAAACXBIWXMAAAsSAAALEgHS3X78AAADAElEQVRo3u2VXUuiURDH/VTd%2bUnKm8IKzC6EQMMwTUrMRC/El6BAECuimxKM0C6ECqKizPLd8iYMTS1703T3j9OefYhdC3Zvlp1zITNzzpmZ38w8R9m3f3zJGIABGIABGIABGIABGIABGIABGIABGIABGIABGIAB/gSg3W6/dVen04GK3w8qDtAx6XlSaVeo4jrdlV4Xd2lLanz7saQexJY0K3H9Ywc63fVL0I5kSfP4u%2bX8XfRPOkB57O3tTU1NORyOer0ONZ1OGwwGqLlcDur5%2bfnGxsbr66vP56Mwm5ubc3NzZ2dnkO/v751O5/DwsN/vp7JVKhWNRgM7hTk%2bPt7e3obQbDbxGwqFEokE/OA8HUBQu90%2bPT29trZGlpubG5PJhNyen5%2bNRmO1WiWjXq/3er35fJ4yl1E2T09ParW6VCrd3d3hAizRaHRhYWF5eZlitFotpKvVare2tigA0g0EArCLeGNjY63ugop0%2b/v7d3d3aRcZu1wuCOQctEtLSycnJyqVig5gNxgMQpicnDw6OoJQLBb7%2bvpQ1p2dHblcjorAeHl5qVQqAf/y8vLeAQIol8sAkE7e4eEhMhgZGXl8fKSjBwcHAwMDomOw22w2NIR2a7WaTqcTYzA6Oord8fFx2gUPFYICu93umZmZ1dVVCopltVpjsRgEi8USiUQgJJNJj8cDn5gLnL%2b%2bvoYxlUoNDg4iN1G4nyOEkkxMTGBmbm9vocLd%2bvp6OBwWPcUsoXLiE0TBzGYz5koAoNFiYObn59HV2dnZi4sL8qZQKFZWVh4eHqAuLi7u7%2b/DCTDoCiYW0YEBC40ZckUIFDsejwOeALLZ7NDQEDpfKBTeR0j6QQAajSMZ445g6Ab1jqaIZppqjHmDa%2bkHLSYezUH2NJkk4C74M5mM6B4WQtD3Rg4xvfjSRGkhNBoNejYg0FxAvrq6Oj09hYVUWe8X4NNnofeBr78q4n2TPpG9H0b%2bJ2YABmAABmAABmAABmAABmAABmAABmAABmAABmCA/xfgO9VrM/42F3BEAAAAAElFTkSuQmCC' /%3e%3c/svg%3e"}}},{"node":{"id":"sequoyah","title":"Sequoyah","path":"/partners/sequoyah/","tags":[{"id":"cloud","title":"cloud","path":"/partners/tags/cloud/"},{"id":"farming","title":"farming","path":"/partners/tags/farming/"},{"id":"tech","title":"tech","path":"/partners/tags/tech/"}],"members":[],"rank":1,"linkedin":"","excerpt":"Build a decentralized banking system where by each user will have access to multiple digital and market assets at the palm of their hand.","image":{"type":"image","mimeType":"image/png","src":"/assets/static/sequoyah.4250cd3.45ee2e6bcf4e6a455584181103397f78.png","size":{"width":800,"height":456},"sizes":"(max-width: 800px) 100vw, 800px","srcset":["/assets/static/sequoyah.1b91758.45ee2e6bcf4e6a455584181103397f78.png 480w","/assets/static/sequoyah.4250cd3.45ee2e6bcf4e6a455584181103397f78.png 800w"],"dataUri":"data:image/svg+xml,%3csvg fill='none' viewBox='0 0 800 456' xmlns='http://www.w3.org/2000/svg' xmlns:xlink='http://www.w3.org/1999/xlink'%3e%3cdefs%3e%3cfilter id='__svg-blur-3c8d418f3ea5d25564a8a78b52d2caa2'%3e%3cfeGaussianBlur in='SourceGraphic' stdDeviation='40'/%3e%3c/filter%3e%3c/defs%3e%3cimage x='0' y='0' filter='url(%23__svg-blur-3c8d418f3ea5d25564a8a78b52d2caa2)' width='800' height='456' xlink:href='data:image/png%3bbase64%2ciVBORw0KGgoAAAANSUhEUgAAAEAAAAAkCAYAAAA5DDySAAAACXBIWXMAAAsTAAALEwEAmpwYAAAL/ElEQVRo3u1Z%2bVdTZxrOvTcgkABJICGAVERQtiRAgIR9BwMJYV9l32RTdlBAVKAqasUqWmvVtlprZ05nOtN2OnN6Zs70nJnf5pw5Z/6hZ957bxJukNjY/lh/ePnuvfm29/med/uQyWVy/JZF9g6AdwC8AwABTKAgclkAxPcAz7PYis%2bcjPvF4p5XnFv6HOB6DvRjHblnLn/En33JhD8ymSCMS/bfGa/ffg3SrIz1mkvmQ/h%2bvucRlXfvS7o/9zvj1zwSBhyRByE92YSURCPCFXqolHrE6OKhVcUgLFgNnToGUZpY%2bq4RFvglp89vRhEQghOxCTh29ARUoWrExyYiTn8ckeF6pJ4wIjM1F9ERRxEcoBT6%2b2IAQ7%2bFB4cjMiyC5lEhUh2JCHqODI%2bEOlQjSFREFJRBb5pHwoCQECVefP4tXjz7Gzpbl1FgbcX89G10OGaQlmhBTVkz%2blpnYTbkiSgzjM/TO0zc/flNtlV14OHN57hz/TEmBhdpnW0M9czjg60nmBu8jIaKbkRqYsQTpHEM42YlPwdL73LhN3NaNnqaz8CcZUJFaRn6O0dgq2yENcuKorwSFOQUQhGscLGCfaPI%2bE71jk7cvPEpdq5/jKXFLZwb24Ct9Ayx4BSctR0Ybp%2bCNizKpZQ/ADBe/QTz4YKQn12D6eEZ7F17hp6OYcyd38DU%2bDqc1e1oKG5FSrxB6M8JTJMKR3NwHgAiNTqaZx7dLf04OziFpZlVDPWNwV7pxOmiGsTHxAug8Qxg/QEgJvoEbDU9uPfhc2LD91hf2kVp7iBRMwfjg3OY7J9DUJDCz1NnxM0KCzBedqlRa1BWdBojA2fR0twFW7Ud9upm2KucKMwtJpD4DfO%2bhiGRSUSkMksAcNwRYa5COmlbaSMmB5Zw79YjTPRNozirCsZTJsgZcX1WML83iwCAVquH1WJDW9MYNi/cxUd3XmFqYBt1lU3oaxvHmYYh/5Vn%2bIkZDwCiHbJejs9ozEBVaQ1Sk1KRnmJAXEycxNGK/feFEdoAihDu8QGs6LjlbAAMqZlodLYgNTEdgewRjwNkZW4Q/GCAYFcZRcjPtZHS3bgyews7aw9wfvQiirOdiNUd95P%2b7tN3nzzrRllQzpqdhzYyt8oCGwotlcg1WpF%2bPEkAjBVOfT9kch4R3/k5wsixtdX2wpJRj5KCNnLMUa9FAXf4Y/w4fWFvbieVlmrGmY4JDDYN4Yu9F3h88wWGGqZhTCTnx7B%2bMoD12B0rUT5CqYKBTnt1aRuf3H6B9YlLcBD1TSezUFtSixxjrsdjS%2bO3XBLz%2bXnuXLmLH17%2bG7byQTQ5Z7BAzjonsxwhgSHieIYVxrAeAOQ/Kx4GKJVhqLd3YLJ5AAsD0%2biwDaEmz44ATu6/x/dQS%2bZRXkXzFhmsOBmfhMHuSXz66Bssjy1hYXgBc%2bMXkJOei3ZHP1IoFAr0ZgK8EplANlD4nmnMwt%2b//wnnhlcwPbpBDvQavvvDf7BxcRdmU6FoEoxoNiIAchcb3yweAOQch9aWcazM7uDLh1%2bgtqxRsOfXw5oY2vhW%2bu42AY53VDSOc3ns%2bppW2mAeovUJmJ26gq%2b//Cd2Nu7j2vw2/vT0O/Q0DaO/fQIZaWZXBHAnTYwr6RHZZzhlQH1lM8b6V7B16SkpvofzE5fR2z2BqdFVlOfVuUAQ15Z7ASn3yiS98gBprDbQaVxc/AANdc0ICQ4iUMTvRwLlgocOVQT5PH25nBVAlH4LV4biJeUX5cV2JL4Xi9tbD/D1y59w69oLfLb7OzzbeY6zZ%2bYwN7GF0BC1aOfBIVAEBkGjVAogaMPDoAlVkiKBqCt34Or6Y2ytfYzVxZsY6J1Da/ME2tvOYXRgHSfijr7GSPfBSDNJr0zQl0Km5KOYG6pGWV4yJnrKKRLkYaClgBKkXDgqTKguSsPxOC3K81NQVZiGznoLbCVG5GckorPOgpPHdGTfafjHH59hsq8Pa%2bNt%2bPz2Jr774hm%2bfPQAP776DH95sodPttaxNNaNpupMNFdn01grLMYTWJt0IDZSQ9%2bzYS81odOej/fnR3F9eRGvHuzi4fW75BMWsbmyiO0Lc/jw/Uv4%2bMYsmmvMaKg0w1mRhVPHoqFXq6BThQtgeDtXUWQHszY3G4zJcagg5Vps2Wg%2bTRNWZZLiGSixnEJbXQ7ZsQ3HYiMEIJqpT7s9F43VZrSepizNaaHUNpHGFqG60ITZ0fO4fekint/7CH99%2bQK/f3wPLx89w/q5KfQ2lMJeZkRBZhLqSjJQlpuChBgdBpuLkBCrI0f5HpzlmehyFOL6hQV89fAunty4ge3lW7ixdhGXFxdwd3OZnufxZGsVjrJsVFhTsD5VjzxTogAiL4yP2kB2uDN7s7PjTYI/fV%2b/c0TXrqZGXJheILstQ0G2FeO941ibvYqbV%2b9jZmxBSHxidDoEB3KIUCkQFhJMdA/HUW0EjhMAeo0K4SEKqMkU3ovSINeQip3Np9jb%2bYpYOIHhzmVMjqyjrXEE9dXdaKg9g43uGSRFJwh7SIrTQ3EkyMsEOH9NwJNGMozXO%2bPK0aWMYV2sYXgPzIrJSll%2bJfboVKZ7bNjdOIsPr5Cd1lrR25iNie5idNizMNJRgJnBKox2lqC3KR/jXWWY7a/GaHspxjpKqTaowQy9zw7UYGX0NJpqCjF79hZWp/ewMnUD5wZXsUqOtLrYQSZST2G1HZfnrqAwO8%2bjNL9nd1SRhlhpqJUdFspYTx7NuZIb1hU2ZB4QOFYEyFtEJ7g2v4X//vg/2uwMzKkmjHQNYHliBeaUJKoAVVCGBOHkcT1KyZz4048MVxDdtYKtRoSGIlarwTG9FvHRWsGGE4/qqZgKRbBchfqydty/%2bgi7qw9o3nE02VsolW7F8swGPrv3OQzJYjjlw6cvxX0CsF/uusvIAE/oYA9keL7or1ZEoK92CLvbT7A8uYlBCnEDHQvYvvgYzuKmt6okfd0XpJ4woIGUbqCw2GbvpspyBT988y%2bKMN8iTKESo9Jryr4OwgETYFwAsEJnMWSwnoyM8xQ4IjM0qgiowzUUGsOgClNDQ8/qMBWS49NQa3EKsf7p/edUSg/h8vKuIFNUVJ2MO0ZjVVTLh0KrVhMD%2bJqeWn58qFqo8TU0X4wuBtFavdBqqeaPVEVCH6mn3zRU6yuofwROHU9HZ8MEJVSbOD%2b%2bgRj9MU8ydfA2yte77GAay0kuEeQHLhQYSYaVnmpARXkl8iz5KMwvQuqpVGQZycapfuim5ObVJ99ic/UGrJn5lGKPo69rBA22Rjhq6pCdlYWkhATkWyyw5OQgh96LC4pxMuEkCqwFMKWb6Ld8Qaw5VmSZspBrzqX5sygjzERlWSWNyaG2QmiNhgxh/2IiJFWe9R8Ad2ooHSyywH0n6PYFnhzaS%2bLj4tHa0InV5ZsYH5jH091XuHDuKqqp6nPY2lBHuf9w7wiVwLV472gsAUeh0mQiBcxUEaYig5TgQeSV5pVMjE8UlOcVN5vMIhAEAN/yTBCjDSeJPJzn5A/eCR6kPXc4APvV2769SCsz1sMAoQ%2b/GO9hXbl6TqYF64t3UJJfh8sXdjA/vIYr07uUN1SjqsiO8oIqjPSPkJLJQniKVKmh00QgKlJL1A9DbBRP%2bWiB6lq1VqA4T3etRitccblbXYQOocGhHmWkF61Sc5XeCx52QfuaD5Da977i4mXGEY4WYeWu0LJfZPDPPAj8%2bC6i/ZO9P6O9bghlRQ2Y6VnB%2b2dvo9TcBgc5q%2bnhJSqwWgQm/VpHyHhSW%2b/TFC9fxbJap4lCcECwTxC8awHJJQIrOXUe2QyqD/q7RtFK3jYoQOECSe7qKxYrQbRQl3MIC%2bOX0e0YQpQ2AY4CB6YaxylstcKQaKRsshXZKVkuJyX6l33h3vqW2df1OL8vY3ImLi6tw1nn9Kow9y9pOU/5Lfu5BUICFVAeUVKBohTu7g8uLEXeTTvOFTJlrosOzuVgpeGJe8O199sAIJ3L/S1IHiQ88%2b3r9u/tF2Rv%2bkeG%2b0qb8YRI3x717TbOSW5/pPLLQJAfsmdpe1Bx6ViZr/%2b8%2bFLKu65%2bO%2bUPOqpfC8DB/oft5TDGevmAd/8bfAfAOwDeAfBblv8DdOI//fVq%2btsAAAAASUVORK5CYII=' /%3e%3c/svg%3e"},"timeToRead":1,"logo":{"type":"image","mimeType":"image/png","src":"/assets/static/logo.dc52710.aeb2c54800d636d4a43504e851f66306.png","size":{"width":200,"height":200},"sizes":"(max-width: 200px) 100vw, 200px","srcset":["/assets/static/logo.dc52710.aeb2c54800d636d4a43504e851f66306.png 200w"],"dataUri":"data:image/svg+xml,%3csvg fill='none' viewBox='0 0 200 200' xmlns='http://www.w3.org/2000/svg' xmlns:xlink='http://www.w3.org/1999/xlink'%3e%3cdefs%3e%3cfilter id='__svg-blur-d57a88f36d57e9f45782d70d2b6106e9'%3e%3cfeGaussianBlur in='SourceGraphic' stdDeviation='40'/%3e%3c/filter%3e%3c/defs%3e%3cimage x='0' y='0' filter='url(%23__svg-blur-d57a88f36d57e9f45782d70d2b6106e9)' width='200' height='200' xlink:href='data:image/png%3bbase64%2ciVBORw0KGgoAAAANSUhEUgAAAEAAAABACAIAAAAlC%2baJAAAACXBIWXMAAAsSAAALEgHS3X78AAAGEUlEQVRo3u2Ye0zTVxTHf1icoBtWhcUXzmwqwfFQ0IK2IGObBrboGL5RR4FEpsMswhhs2f5TMnxUZQnihsOJOlmcGuWlKLM6QIUK5b2WilCwhfAoIAJt2b4/LvzyQze3PyCpyb0hv9zf%2bd177vmcc%2b49tzB/veSNoQAUgAJQAApAASgABaAAFIACUAAKMNLML2yDg4M0AuMDQFwLF5cry8rLiiuViorRf5CUKkp6ep5wgy0RoL3DsDXA3XOh3ZIFQi/n6WJXB4mrw0oX%2bxVv2690cVjpbHe/6A8MM5lMFgeA/MZTr2v2F81nGGaF2%2byJ1gJmpE2wsmIYK4dXGfmNq5YN0Nzg6fy6g9AmboenvdDGz3PurvVuTm9MA4O1tbXQlrmW%2batFA7TotN5us2GuzSRrPN9d7pifHAwGb5eZ82cLJwuY/NzLFgpA9oChs%2bN9sRNMF75m4/LWDIFgwpc7lt37afPXUhGE06cwintyltZiAfBcH8DaOs3OFo7P%2b/5j5ZmQq4fXLnQUQug0b%2bojTS0XLosDMJtZv34TLYWtyxbPek80b63Pm9Xnt6/ymOO/3FFgxXzg52Y0DljoMcpldubFdFsBY2szCRh7Ni25n7b58Oe%2bns4z8fptTPjYun%2bMARADPNtadStcZ8HcTasXBYrn2wttsQ1emTjRfgpTKL82thtg7K8SJIt%2bTNo3YzIjcnUExgLHqbs2LEXns9APR3Jt0HIBiHFPnvRKN7wzVMEEc2cK7SZbey12UNdWjnn%2bjMtljiRSk7YxYqPvVBsWYtXSOfcK87n4jBcAue5yJYb0idBoNPLjzn4a%2bsqvR%2bSVONhkMrI1oatbti82dtfGRxoVXnH%2bYACnx8zXwB5hplH6R%2b8TMpI7qflLM/zQ/2duPF9EX3zFx0ejyfzcaWv%2bN%2bXDW2Sk/a8IjFyDzSUlJTeGGvwNiaauLj8/vwyttCwrM0uvb%2bFWKi0tld%2b%2bff369Vu3bpHBkEOYl5dXXV3N5k9TE75WViLp2fFdXV0FBQWFhYU5OTkqlYos/PDhw%2bzsbLVahRH9vR0Nit%2bAxum/c%2bcOt2GePn1aVFQEYxoaGvBaV1eHhWAXGcwQCw4ePHhEdgSdkydPQjU63d3dIpEIQ9FPS0tLT08nCx84cCApKclgMLS2th47diwyMrKvrw/ymzdvenh4QIj%2bwMCAVCotLi5G//Hjx7t375bL5VAIvDBp2OnTp9kEMxgwJijoI/QVF7/6U55C9ENb7BexPj4%2bRC1hOHr0aHBwMPFUf3%2b/t5fXlStXyFeGjIB7goKC9u7dm5uby00LDAw8d%2b7soUOHCgoLiHbEx9fXlygi5Fu2bJHJDqMDlwQEBHA5tn//fo1Gg05ERERiYiKhIsFxd3fX6XREYWh45Hfx29urL5JNgmdqaircv3PnTplMRnjwvHDhwrp162pqauAIxEcslhDvsAAkENDY0dFRXHzfz8/v1KlTRDsMQgQUCkV9fT1RhGmLnJza2ttZQ4cAtm77JP3ML%2bggYSQSn6EdwSqMj48nEY%2bKioI1Q/ax4xsbG8ViMdYiS2jqtXu2rUKamMzsrJaWloSEhAcPHmRkZEgkEjibaDufkRESEoJXZAdC5%2b/vf/fu3WEAzmHJycl4x3ySNk1arbe3d0pKSk9PD8ISHR2N%2bZD/kJIUExX%2be9bPBdmpOWcTUhM/1ZZf1dXcMPZ1h4WFHz9%2bvLm5OTMz68SJE8REZE5oaCiCoFaplEplXFwcdg4XKNjqtWxJRXk5cXZMTMzlS5fIxDVrVmNRbABiHiJAXKDX65HbJA%2bBx3BnCzYHsOBsIoEdarW6trYW0IgaQs%2blFhK9rExZWVXV3KTF1O4WtV4lB8CA0QSDMBg7lSTMyHFihh7IKyoq2tra%2bMcOliuvqCSLdnZ2VlVVYc/ga29vLwKI8RDCblgCnWQuLEEfVhEXMP90qTS/%2bBgdVRMGRx1/z/y%2b4coLX49pnO5CpGDxF%2bZqE1eh%2bEawwuHKghHDlY5fzp4pF/xi9LycU0vmckvw1XInPn8J%2bn8hCkABKAAFoAAUgAJQAApAASgABaAAFOAlbX8DUqPf0vjk0hYAAAAASUVORK5CYII=' /%3e%3c/svg%3e"}}}]},"tags":{"edges":[{"node":{"id":"foundtion","title":"foundtion","path":"/partners/tags/foundtion/"}},{"node":{"id":"foundation","title":"foundation","path":"/partners/tags/foundation/"}},{"node":{"id":"tech","title":"tech","path":"/partners/tags/tech/"}},{"node":{"id":"cloud","title":"cloud","path":"/partners/tags/cloud/"}},{"node":{"id":"farming","title":"farming","path":"/partners/tags/farming/"}},{"node":{"id":"aci","title":"aci","path":"/partners/tags/aci/"}},{"node":{"id":"twin","title":"twin","path":"/partners/tags/twin/"}}]}},"context":{}}