{"hash":"11f77888bf00ea15992f422a0b9a21c1f1bfcb4f","data":{"entries":{"totalCount":73,"pageInfo":{"totalPages":8,"currentPage":8},"edges":[{"node":{"path":"/team/bishoy_mikhaiel/","content":"\n","excerpt":"Cloud system engineer with 7 years experience on different cloud platforms and virtualization.","name":"Bishoy Mikhaiel","rank":1,"bio":"I am cloud system engineer with 7 years experience on different cloud platforms and virtualization. Worked as an application support on tomcat and MySQL platform and on jumpsacle and postgres, Worked on DCPM racktivity application. The company where I learn how to own your project and manage it, like idea of new internet.","linkedin":"https://www.linkedin.com/in/bishoy-michael/","websites":"https://threefold.tech","countries":["Egypt"],"cities":["Cairo"],"image":{"type":"image","mimeType":"image/jpeg","src":"/assets/static/bishoy_mikhaiel.6ef341c.a5e162e047d89fc18eb76c0a524e7713.jpg","size":{"width":600,"height":600},"sizes":"(max-width: 600px) 100vw, 600px","srcset":["/assets/static/bishoy_mikhaiel.6ef341c.a5e162e047d89fc18eb76c0a524e7713.jpg 600w"],"dataUri":"data:image/svg+xml,%3csvg fill='none' viewBox='0 0 600 600' xmlns='http://www.w3.org/2000/svg' xmlns:xlink='http://www.w3.org/1999/xlink'%3e%3cdefs%3e%3cfilter id='__svg-blur-121f6164210cc751c943a48bbdcd0b07'%3e%3cfeGaussianBlur in='SourceGraphic' stdDeviation='40'/%3e%3c/filter%3e%3c/defs%3e%3cimage x='0' y='0' filter='url(%23__svg-blur-121f6164210cc751c943a48bbdcd0b07)' width='600' height='600' xlink:href='data:image/jpeg%3bbase64%2c/9j/2wBDAAYEBQYFBAYGBQYHBwYIChAKCgkJChQODwwQFxQYGBcUFhYaHSUfGhsjHBYWICwgIyYnKSopGR8tMC0oMCUoKSj/2wBDAQcHBwoIChMKChMoGhYaKCgoKCgoKCgoKCgoKCgoKCgoKCgoKCgoKCgoKCgoKCgoKCgoKCgoKCgoKCgoKCgoKCj/wAARCABAAEADASIAAhEBAxEB/8QAHAAAAQUBAQEAAAAAAAAAAAAABwIDBAUGAQAI/8QANRAAAgEDAgQEBAMIAwAAAAAAAQIDAAQRBRIGITFhBxNBUSIycZEUgbEIFSNCQ1JicqHB8P/EABoBAAIDAQEAAAAAAAAAAAAAAAMEAAIFBgH/xAAqEQABBAIABAQHAQAAAAAAAAABAAIDEQQhBRIxQQZRYXETFCIygaHR4f/aAAwDAQACEQMRAD8AMwjrvl9qkhKVs7UBEtDzj7xJ0Hgq5jtNRM019IocQQrkqp6FiegNCa8/aB1Jr2dbPS7COAn%2bF5pdmUf5EHFMaxwtJxhxlrl/qlxJHI9w8USKM7VX4R17VY2/g9o8UJaa5u2b/YD/AKqhnjaaPVMNxZHiwtx4a%2bKVhxQI7LVfKsdZYkLGMiKQD%2b1ievbNEsx18ZccaRDwrxA8Voz%2bSMFHbmw%2bhxX0n4FcQ3vE3A4uNRcyy287W6yt8zqACN3uefWiaI5ggOBa4tctyY64Y6l7K5sqbUUzFe6Us9KYlbAqFeIE6/qV3o3iTqFhFpiXNvNcBkcOQ43gHPTHvTl3qvEraobYWlv5IfaEhUEke5YnP2q3491CHReKVvJrZJXcxyJuYLkDkRk%2bxqVpWvxttdzEXlOfLjywX88cj/xSTwQ4kBasJBYLKG/iXwtLqlzpImjxNLP5cnl822kZwPtRl8KtJt9G0Ge0sbYW1t529YzncGKjOeZye9D/AIwvpWmNxbFRMikoHG5c9xRX4UY/uKxZhteSFJH5YyxUEn7k0SDm1fQJfKLaOtlXm2vbaUpzSsU0kE4wqPMORqU1RpyFRmYgADJJOMVCosJ4g6AdZslaAD8VCcpk43D1XPp2PvQtuuKU0tpdHj0%2b7OoR/C43iRc92yR%2bVEvi3i2zWGWy0yYSXsikLIvyr7kH1IoRcL2J07VLppizAykksc5B55%2b%2baJNiPjh%2bM8d0LE4lFNkfKxus1ZpXNhpl9c28t9qeFfaRFCvRc%2bvc0WOBNRe90iGK6ZDeQKEk2jAb2IH/ALpWQdjcQqkO3afmKnPTlir3Q9PeztzI3KVyDgHoB0rQw%2bFF2OZJTTndPQf6sXiPiCs0Q44tjL5j5n09v3tb%2bPpTwqgstSmjAW4Xcvv61dwTRzpuiYMPXt9aTnxpIPuGvNauLmxZI%2bg78u6lMKHnidqbq1vpkMhUSKZJgD1H8oPbkTREbpQJ4pvnvOKNQlJ/qtEo9lXkP0zTfCoRJNzHoFleJMkw4nI07dr8d/4qa4tDJKkqu0bJ8pX0pVsjPOVaImQ/P5fRvqT0/WrKGMFMj4jip9nGv4jaAADy6etdHPAyUU8WLtcLh5suO4mJ1Eigfdc4Z0UWkjMjybpXMkoJypYnOefStn0jx6Y61TpNLYLveFHjzzKt8WOwqbd6jBFZLOrb1cZUD1FVcCToJuJ4a0l533tcm1TZcGOPoMRqPUt1J%2bgFM3Osy6S63cQyR8yHoy%2bxrPWt75kpuXHTO0e5NL1lne0ZHO5toLHuas%2bBpHKQgMz5AS5pog6X/9k=' /%3e%3c/svg%3e"},"private":0}},{"node":{"path":"/team/ahmed_siddique/","content":"\n","excerpt":"A hardworking individual and a casual guy who loves to explore new ideas in Tech.","name":"Ahmed Siddique","rank":1,"bio":"A hardworking individual and a casual guy who loves to explore new ideas in Tech. Experience in Telecom/IT, Networks, Cloud and  Systems Engineering and Servers Administration. I enjoy learning new things as Learning never exhausts the mind. I have not yet come accross an organization who are rebuilding the entire ecosystem of how things work in Tech. ThreeFold is going to be huge and i want to make sure i was part of this great movement.","linkedin":"https://www.linkedin.com/in/ahmed-siddique-a4126a98/","websites":"https://threefold.io/, https://www.mazraa.io/","countries":["UAE"],"cities":["Dubai"],"image":{"type":"image","mimeType":"image/jpeg","src":"/assets/static/ahmed_siddique.36a08ae.7ada2165288fb6e9c099f6cc1cb3d6b0.jpg","size":{"width":640,"height":640},"sizes":"(max-width: 640px) 100vw, 640px","srcset":["/assets/static/ahmed_siddique.36a08ae.7ada2165288fb6e9c099f6cc1cb3d6b0.jpg 640w"],"dataUri":"data:image/svg+xml,%3csvg fill='none' viewBox='0 0 640 640' xmlns='http://www.w3.org/2000/svg' xmlns:xlink='http://www.w3.org/1999/xlink'%3e%3cdefs%3e%3cfilter id='__svg-blur-6ac97681c14f0de596e3069969fe6c86'%3e%3cfeGaussianBlur in='SourceGraphic' stdDeviation='40'/%3e%3c/filter%3e%3c/defs%3e%3cimage x='0' y='0' filter='url(%23__svg-blur-6ac97681c14f0de596e3069969fe6c86)' width='640' height='640' xlink:href='data:image/jpeg%3bbase64%2c/9j/2wBDAAYEBQYFBAYGBQYHBwYIChAKCgkJChQODwwQFxQYGBcUFhYaHSUfGhsjHBYWICwgIyYnKSopGR8tMC0oMCUoKSj/2wBDAQcHBwoIChMKChMoGhYaKCgoKCgoKCgoKCgoKCgoKCgoKCgoKCgoKCgoKCgoKCgoKCgoKCgoKCgoKCgoKCgoKCj/wAARCABAAEADASIAAhEBAxEB/8QAGwAAAQUBAQAAAAAAAAAAAAAABwIDBAUGAQD/xAAwEAABAwMDAgQEBgMAAAAAAAABAgMEAAURBhIhMUEHE1FxFCJhkSMkYoGhsTNCUv/EABgBAQADAQAAAAAAAAAAAAAAAAECAwQA/8QAHBEAAwADAQEBAAAAAAAAAAAAAAECESExAyJB/9oADAMBAAIRAxEAPwAlxuWh70vvSIv%2bAe5paiACT0FVImxQFd6daEeqvEG5yri9b9KsLWGzsU%2b22XFE/TsPeqWNC8QpB3oXcEZ5/EeCf4NOl05JviDtXCaEUDWWpNNOpa1VAW9FJx54A3J/ccGinFlNyY7T7CgtpxIWlQ6EEZFcD10lg12mkqzSwaBGIRywPc1XasdWzpm7ONK2rTFcKT6HaanwT%2bXHuardUpfcskpuM402VgIcW6MgNk4WfsTzSgZX6OhRbfaYrEdDbIDYJGQFKOOSfWryZLjRkqMmQywAOq1gUL3NPIgznXS6lflFQDpkkqOOmOeftVtMsT5Mb418yVuNIXveRvwrHzJwBj9yKqcr9ZrinjSJmtdt40zOat7jcrCd34ZCjxzUXweujk3SxjunPwbpaQf0Ebh9skU/a9NH4tLjqnfLHKihHlJHB4HAzknpUPw1aRDZdabPClL3gdCreRn7CmGp0Q9YdfTCIg08k1FQrmnkqq3BmTGIKvy49zXncKBSoApIwQe4pmCr8sPc15xXNKRxR3e5QLJanlyvLbUcoQEoG5Z9ABWdia2bXNadnxX4DSUDatTRI9s054gPW5q52kznmArzFBTSnAFDKeFEenAqgs95bkvymbwIXwiEq8sbcFWO/wBqqqMdNkeuV0KzdyZnWxEqK4lTK0bgsdCKzOlIwaTlHLYUpQV6gk4rJafvMy5wE2i3NqTGby2X%2bwRnt6mqnUmsXrBqNtqzOBSY6fLkNrOW3D/yR2I9RzzUIn7wHrWYyGxCqfQrpWH0pry1X1tCC4mJN6Fh5QGT%2bk9Ff39K1yXhmtLRiRF%2bNYg2l2XLcDcdlKluLPYCgxq3xOuNx3sWgGBFPG8HLyh7/wCvsPvWm8YLiqLo6HEQrBlyPm%2bqUDP9lNBIqzSgZZWOMu63%2bIy4pTinXQVFZySByc569KNyNHWRyOh5VvSF9071bR%2b2elAFiS7FkIfjuKbebO5K0nBBqyuWrL7copjTLnIXHPVsEICvfAGahcunpl3lcwtoIWrtcQbNEctmmfKMo/It9oDY0PRJ7q/gUJ/MUpRUolSickk5JNMe1KzTMqQu3b2S21DvW0094gXi1MsR9yJUVtYOHhlezukKzx9OtYIKxTzbmDTkrP/Z' /%3e%3c/svg%3e"},"private":0}},{"node":{"path":"/team/ahmed_hanafy/","content":"\n","excerpt":"Ahmed is an Automation Software Testing Engineer, started his carreer at Codescalers.","name":"Ahmed Hanafy","rank":1,"bio":"Ahmed is an Automation Software Testing Engineer, started his carreer at Codescalers, and now has about a year experience in Cloudcomputing software. Engineer fell in love with Threefold I believe that Threefold is changing the world by building the new neutral internet, it's a great experience to be part of this.","linkedin":"","websites":"https://threefold.tech","countries":["Egypt"],"cities":["Cairo"],"image":{"type":"image","mimeType":"image/png","src":"/assets/static/ahmed_hanafy.6ef341c.facaca9545d02a7f94dab33bc5e7b087.png","size":{"width":600,"height":600},"sizes":"(max-width: 600px) 100vw, 600px","srcset":["/assets/static/ahmed_hanafy.6ef341c.facaca9545d02a7f94dab33bc5e7b087.png 600w"],"dataUri":"data:image/svg+xml,%3csvg fill='none' viewBox='0 0 600 600' xmlns='http://www.w3.org/2000/svg' xmlns:xlink='http://www.w3.org/1999/xlink'%3e%3cdefs%3e%3cfilter id='__svg-blur-94f903aec3d8943a1e583f2d21d6e443'%3e%3cfeGaussianBlur in='SourceGraphic' stdDeviation='40'/%3e%3c/filter%3e%3c/defs%3e%3cimage x='0' y='0' filter='url(%23__svg-blur-94f903aec3d8943a1e583f2d21d6e443)' width='600' height='600' xlink:href='data:image/png%3bbase64%2ciVBORw0KGgoAAAANSUhEUgAAAEAAAABACAIAAAAlC%2baJAAAACXBIWXMAAAsSAAALEgHS3X78AAAXXElEQVRo3u1aB1CUWbbu96q26u3Ovq2ZnTczu%2bOIjg5JaGLnnHPONHSTmoyIATBgABVQzDrqOGbEiKKiRAmCAcMYBsk5h4YmBwHddxpm5%2b2%2bqq16Mzvuc6v21vHy/923%2b/%2b%2bc75z7rkg4k//5APxLwL/IvAvAu9qvAWbG/98BAD0mzdv/vr27T8NgR9dPjv7ZnBoeHxi8n%2b9/l4TmEfZ0dl95NBJk3e4Ruzrqw3dk3KwpbkdXn8XcfglCczL5tnT50qhHudEVTCUviIfHV3ORXEkdEX%2b7aJ3EQfEL%2bv7icmp0MDVPJJsbWDUmYTki1uT0zZuPrk%2bfr1vsL/Cr7mx7RfngPhl3V9ZWa8SGpd7RxzdkJAWv%2bnc%2bnVpa9de3by59PC%2bDQHBGelXf1z53hGYnZ2FOed2YahX2OGNSYlhqzYFRB6LW391W%2bLNpC0le5PObIw79%2b2Z95TAvCrM7Z3J8SnJqzfvXbM%2bRusXwJBGijV7lq9ICgo7tWlD2qbY7Iwb7yOBefRjlqG0VTGbTCu%2b2b4rNWyFiSPX4zgJer/UgCC5Kzleq7%2bYsK7mZcX7S2Ckf%2bDs6tjTSbtP79x3blPC0eVRSb6my0k7sxLjvdGMjQr17f0pQ8Mj72USzwGCGn95R%2bqRDYmH1m45EBq%2b1y/gQMSq6zt3lx/ddX5VVN7OLbl7k7pq6qzL388kBhYVRSU3TqRtD41cLZQm%2bAelhESm%2bPicWxlxMjy4%2bFBKQWJcz4uX7y%2bBeWW/ePB4W2DIJr1PrNa0XuGbIFMfCg6IEUqOBBuqbl9/rzeyeQLVz14mBgbtDArcBzmg9d%2bv9zsYFLhFo85K3jjW1fZeE5gXRmtN7abAkITA4D0R4XtMAaeiQs7HhH%2bzInyoq/Md9XO/MIHmysqtQSEhQmWYUBmv0ab4G1P8vJ7mZv3i0n9XEqp68nRXROhGg68fmaV0IxjIzIPBBktj5ftOYB79q2cvU1ev/iZuzZHYVeD7JLXy6tqIouSVRWeOjU%2b8fn8lBOjnD467k48sV3vvXR52KDpil8nvkFF7bW1YzrbVMRJJbmb2fL/0viQxgH4z%2b%2bYvd%2bJ79555qZYHekUlR0VvN%2biSjV4pOsWREO9UH/U6Y8CZr090NP1PFXozN/5/CPzleXd6Zrav1/Ld06qTJ67Fxe00BcSpJeFhprhtsJfx%2beskogS1LIzNy7h07ejuo9dOpRfnlfR2901OTP34VX9/QH5mBHr7LHk59%2bJjdpi8V8XH7Y5evjXEN25F1FaSK9/m11/qeF7xQeExUnG0UBIXHrd37zGiHX7zig2pm3cmxiRuW7fjUlpmY13LL5IViJ/ke5gHB4fPns2MjkxQcP14ZJWAqgvyi9XKQuV8fxKSQXKieS7FeyzC7E7ZuTUyimKLtf2984J/X%2bjyBycBnh2qCzVpIo3yYL0sIHFt8pW06yNDIz92U%2b%2bcwLxyDu8/LWUbwoPW6aRBPIrGR7NcwvXjUjRsitpXE%2bKjCKajxR721IQtOyKMka6fu4NR3ZkSqozpydZL/A3SYDXHl0dRRoesDTcsT96wc15RPzsUiJ/k/vGJqdjVO3TyMAnHqBT4BRqjuHS9jA2ANGKW3qgNU4gCxBxvPl2rUAQbRTo1T%2bct9xfQVDKmlo0XS9l6o1e4rzqYjOKLmTpfuX/s8vjBgaF/BIH534jU1rb66FcqJUE8upZNlsm43jyGl1oSpOD7aaUmMccnPDReLoJbX5wTWy/Sh/lFCRgqJkHmrwk1qkK4FJWMpuSRpSyMUMZQM1B8P0XQiyff/z2nHMRP0k9BYblGGSnjBfjpo7DODDpWopCa%2bBQ1gwSwNByKNsA/hk3SUNw4OBeWn1eYguvNwkuoGLGab/TXr%2bARFBxPHtqWSHLl8olSPJIV7r08OyPH%2bv2z75jA/Jn94oVsLsOgEvr5eUchl%2bBYBKmUa2DjpCyKWkjXMclagzaCgZMwcGIqVsImSuU8Hw5OQsNKZWyfUOMKFlrE9uRi7cluX5GFc7paGb4%2bP6vgH5cD%2b/ecVkiCdPJgX69wxy/QHJLSoIsMDVjDp2oZODmPquVQVSRXFgUnYVKURE%2bBkuPNIchAOWKmVkRTcUlyigeX5M4WMNV8ukbF99VKAo6kHv170uCn7QPbEg4yKVrIVKM23GUJgYkTBfnF%2bGjDVWy1gK5hknVqmUnCVkOGCJlaHV8r5egkPIOU48MlyBRcH43QqOWocE40HktHxYqJSBZoLCEqvvzu45%2bdBj8tAilJ37JpOjpB5qMORznSSO4cKcfb7SuKlKUSMdSuS4lMvJiJExLd%2bAysmIXjeSv8WBQliyDHufP4ZBnJlSkiCFgkidNSAsGdjXakhXhHxYWvy7tR8G4JzKMfHh5bFZ3kpQyR8Y1hplg1z3vZApSdjSfZnR/gHSHneeORTBqayybJaGgh1olO8OAG%2bkfz2XoeWUn24DBwAhZOiHYg4pB0l0UYrAtLwvMN9Y/ZsSn1ytmr71ZC8zW0vr5NKg5mk1V8hpefLhz0TUHzcG5sjcJERDLwriwFR0PFCakEGd6F42lH1KtD%2bAwdDSdj4iUkFyZEho4V4iFuHlyCK4uEFtDwMgFLv25FfGJM0ujw2M/jgPi/19DrN4soWJleFqyXByvZesc/urksRqGdGWQXlocj2dMWj3Gi8OgKsdiPSZSQsSIOWUnFS6Q8o4SplTDVap7WHdY4EJd84op3Z1EJcqhULAzf5B25NnxteUn523dUheadMj09u2njATHfFBO1NS46UcHzk3O9P/3Ngi8%2b%2bhKyGWNHdFtGcf4CxULz5ZJAPJLh%2bCUewAlpCh5dTUcLKO5cgyaYieI5LcYsW4hxWoylY8UoWzKTIDWoIxJjtq0Oim1v%2bznnZgSoA%2bztn%2b1vJcDo2GRYULyY7%2belDDYZouR8g68iFOWC%2b/W/fYS0wTos9LBb4O5sg3a1p7FICo%2blWGcHmpAqIqJ5LKIMEgDlQBZQpHgn%2brKFHp/%2b1vYDxCfOthgoBlS8XGxV0aYV/qu%2bf179t1L5L4H9yBB%2bwu6EmJl5MzP7ZvYHezs7f9awnrF%2b6Ndn5/bIhvpWlTpSxPFxXUIg2uE8lrrYfLpYwVd/8tvFC39nb/eJi70NGrkYQ0CLmAQJyo6IcuOQiRI8mk/DCD2W0ZwXY4mujC8%2bWLrogy9RSzx86AIhQy4V%2b5NwEi5N7aUITlqXkp9V9DcI/IB4evr1zMz0HHRY87ars7uw5AECtDFvMzOzcECB%2ba/Hm5npGfhMUfEjNlnh%2bskykZNnEIMZLRYHcbkbjL5GjojlTPRcjHFYhHJciMZ58PFuLIwjBevOIrkzfFXQfhq0TEWI3LDKELxKZ9y1PDI9cWNm6ratIaECgYEE2x9dAwkdbVp5/siZ8dHxP/t43gAo%2bHKmobH52YvK0vtPHj56NjgIu96bylc1WXl3M24WICanpl%2b/Bpv5waatt9PTM3NmvZiasp7HDx066/wHx2ipcmdoyK7w0L3hoYejIg5Fhh5dGXF0VeS%2byLCdIabtpsDtQUEpISF7IsMOr4yEt07ErjwdtzItPuZm6ubCr1NKzxwuPXe8%2bMzRnCN7Dses8hLq5RSOyAnFdfQk26FCNEHPyp/NtS3T4OO3b2bB/vT2zcTEOGC9crPgalbh%2bWt5ldUNwC2/8P7pS9kXruUhxienJiZfg01OvZ6cn6emAfScTcM0MfdnxsjguAW/%2b%2bxQ3IYD0asOREYeCA/ZFRSwI8hvh8k3OdAI845A485A313BvnvBgoyp/vqdRq99Ad77/HW7fJRJXrJkg/JwdMipzWtPbFhzcEXY7jBTqsnvYJg/LD4cHrBSxFv80aKDKXvmpDKnh5npOXs9PTVZWPY4M7vk2u2i9My8l5V1wLHwbvnpS7fPZ%2bQiRsYnR8cnx8Ynodcfn7DOE9YLYDU1OWdAAIT0%2bOHzdZHrkyKit/kHbvM1Jvsbk/0M241e23w0W3TKBK1yi0aRqFVs1sgT1PLNcvEGmTBeJljDpwcQ0Ao3FwHSSY/BruEL4KwcIxKsk0k2yCWbVdIdRu2BUP/Lm2LSN0QjP7PPmfvlBXhuZvrPqph5DdeFpY8ybhVm5pSkZ%2bY/fVn5pzfTRaXlx89nnbuSgxganRix2vjI2MTo6PgozGOTMI%2bBjU%2bMAzGgNzZuTYe3fzqWsjtW673Fz2%2bzwWejTrNOBkDFW1SyrVb0sq1aK/oNCvFqHsuEx3m5IjWuSF8iNpzDjJGI4uEtlXy9QrpeLlkPDBWSzRpFslG/P8jvKHDYtvHV81eAfmpqcsoa/UmgAdejwyPDQ4NFZY8zbhddzy4%2bfy330bOKN7OTxWXlx9NvpkMELMOjg8Njg8OjQyNWGx4Zm7cRsFGw8dE5G7AMgdju5t5ZqdCskEgjBaI1YtFqPnc1j71WwI3lcdbwWHEC7loxP1bEWcOlxfDp8QrRNh/1Nr0K4rNRKVknFcC7MQIOfGS1gB0r4m5UijeqpJvU8k0KccHp49a/kgwNT8AYB8%2bNwTw2OlL79FV%2b3r2rOcUZWYVXsu6czcgpe/zi9dTY3XuPT168df5qLqLfMtw/ODwwOGwZAhsBG5yzoeEfbBi4DVtfAT5DQ8OPS8oqnj67eTULa%2bvO8yDRnT3xixbr6Iwob6M/iWCik8OZ1BU86loZN1EnTTIok31UWzXSBLV4k1wYL%2batF3JjuPRoWMOimYi45Wz2Kok4TiZ5ea9senYWEI/DgOjDv9FRcH5FVUMWEMgqhAhcyrpz5kp2yYOnrydHS%2b8/PnExK%2b1KNqK332Kes/6BeRu0DA6Bvy2WIQBtgdCMjlXVt95/8nJ0bMz6XwempiYgNV5P%2b3hH/DvivxyWYP7wnzYf/cenn/zui18hfvXhBx9CLn76mz/afPg5aomD1BPFXoYUOiOFTk5CpKPK3UPngfJBY70waPpS%2b68Tk8pLSnOu3865fqu1pb2xsaWioqriVW3lq9r6usZXr6pfvHiVXXQPauX17KKMuQw%2bdv5mTtGDiopqoHTiQtapi1mIvgFLT39/d29fj7m/F6zP3N3ZA3Nf/0BHR093dy/U3abWztr6ZsvgoLm/v7e3t6urB2Kcc7vI5rNl9gudHRa4L/y9w%2bKP7Rd97IByJFA82cilGNev8FhomJ2ISAeSg437go%2b%2b%2bvxDG4wj2n0Rku6ERdm6/Abx67Rv01o7eoqLHpQ%2bfF5U%2bKCo%2bGFh8X2oj/BKceH9u8UPSoof3MovzcgqyLhVcOFG/rlrOacu3Uq/lnsjr/TijQKIwLFzmYhb%2bSXfV1V39fR2dvW0d3W3dnZVPHnZ1d7RZzZDqaqqqe/rN7d3dDQ0tYD19vX29ABfM1xHrkhQyYwEV/LCj%2b2d7bAoFyrOlaHgaRUCLd6dziAInO1JSEcihyyRsJQcooCF5RrgAMdTKqk8CYWHs3Pbvj7x8bOq/Pyy/JLygqIH%2bSVA4GFBSXnx3cf5d%2b7dzrt7O//uVXD8tdzTV25/C3AvXD989urhs1eOXcg4nHZ534m01G/OIhJ2f73z0LErN3JK7j25U1B6/1757YLSG3klxfceZ%2bYWZ2YXlj96/uDxCyBzM%2b9u/t2HWfmlN%2b%2bUHTl%2bic/yJnqyuXS5ix3OzYns6kRxXORJQ7GpGK7dYjTSlrDEBoN2JBNQbJIHE%2b9M83SgKIXeCpaChWaYVAYRibN%2bdXxGdnHatdyzGbnnM/NPXcm5dKPg/I28M5ezvknL%2bPrMpYOnL%2b47mZ76bdr%2b0%2bn7TsJ8/vSVa3u/Pb55394Nu3Yl7N%2b9Zc8uxJZd%2bzen7k/e//WJtPNpFy6fS79wNv3SgW/Tj566uO94%2br6jp65mZWcVlKRduXEs/fKJS5nfnM/4%2btzVmPUpJIyIzVBLeHoPB4KzLdbdHof8CgN8BCytmyPFzYHiZEckolgYFxoTz8ciaShHkpKv4REFbAwnSOFLdaftTT1Y9vRlLji%2b7AmkZkHpozv3yrOLy24VlmTll2TllWQXleUU38spuZ9bWpZ7t%2bR6XsmN2/m38nIyC3Iz87Ov5d3af/QoIu3S5YvXsy7funU1%2b/alm1mZ2dkFRSUlZY/ulj0svfew5MGje0%2belJaXP3j85MmL509evHj%2b/fd1zQ07dx0l4aRsKnSarC8/dbJf4LbkM2cwrAudhuE7LsK4OZK/WOhJJwh0MgPelepmh3exxch5GrI7k%2b7O9BV7wcHgypkLr2emhoYHR6DUDc8VvJFhKHZQh6BgjEDxnhiHGQbMY%2bPj3X39r2ob%2bwcGrJvca9htoSoOIeoh/VvaaxubG1va2jq72rt6Ort7unt6u3t6zHOjH4bZPNBv7jf3DfT39ff1TowP38kvppHkNIJILjXi0BwSjo9DcwmeHAqWx6OJkLY4tAvDdilOw5cH%2bATxGArm3GJ/n3ABQy4kCtRsBR3LTT92EhD39MLjenrNZjBIPOuje61P7%2bnr6%2bvv7zP3w0W3uQ%2be3W8ZgPLeb7GYLf3zt5ZBC6K2sRWq1qPvXlTXN9Q3tdQ3Nzc1t7a2tbe0ts5b29xob2/v6urogWd1d4FfrlzKopCUHLaGw9JBsro5U5DOFE9nKhXHl4r0eJwQi%2bJ4enB0kOUeDCFLzaLKeBRpsCHMqPLXCXVaoXeIPvjQ1pSW5pYBywBUtl5A2WsFbYXb09vV09M1N3d0dXd0dXXPvd7bbwYzWywAvcdsXQ9ORVTUNlTU1FfVNdbUN9U1tjQ0t9Y3NUP72tzaBkSsVDrgG6wDKpC5rxeCMDI8uGffSTZDr1Ka6ESJkx0eMtjBnujwJRYSg0nX2H3hueAjWw8XOpvAw3jQIYld7HFYJ4qAphAzlVQPNhfNDVT5JUTFPbj7wGwZ6IRv7wasXW1Qua0EekALHeCr3t6O7m5wWxcw7B/oHRjohOvuHiiMsKyjqxOwAYHGmobmytqm6jkCEISG5pa6xqaWtnYA3zwfgnZrEFpaWjo64VMdHR3tsXEpZJJawNHhUCwXB4KrKxPlyfNAsrhMNcBd/LGj7UIPGlVKQnNoGBYLz0chSVQUWyXQCmhSsjtDQhEYJPqtq9Y9KCmDDXPOxWbYffrmVAQxAfGY%2bwfMA7CjDgLD/kHwuqVvYACsFyQ9OGAZHgIVgbIRtU1t1Y0tTa0dTQB3zhpbWhsBbBtEoK0BmLS0gKrq6uo72tvBL01w09wUFh7v4crgsZVkotjdhe2JFbm7MJZ87o5zJrvaYr6y8fjSBi0SeXOIfJQbjeTBcbEnejiS5HydkKUiutLFFKGCKQv3NmVfvTU0PNTR2dltRQ%2bgQfGQdlZxgwEBSFnrbBnst8IdsPYJ1lZhCFhCzsAtorKu8buK6u8qql7V1tU0NILv60BCgLihoam1pba%2bvqGxAZQEoDs626xRsYakJSQklkRSGANWMyhKEobv4ckkeNLd7TByvppFkxEIInd3jlYbQCZwsM5kOp6NcaUQUUwZT%2b0l94GzsklpCFT5RvoGnz9%2bFhrIzi7r7t9jLRjg7MFuaxQG5tqaAWAFPQFoF2RjHrRApLp6e1phYwWNd3a2dXYinlfWfPd9dUVVHWTCq5q6qrp6K4fGppq6usqamldV1VU1wKIOCDQ2NgKRjo7W%2boY6gz7cHUnnMuXLlmCdl5FtFrrZfu5it8hTyNGgPXmebiz7pRixQM2nSXy8Ahk4jvNST5QTUcqRklypeGeKr0QXoTdFGoNPHvzGYrGAVhuaGq3SAK9DEAC01cHQ2piBTLfZDNoF9QP6Dmt6QM/Qa61R1ppoRjytqH5eWf19Vc3dh989fPryZWVNRVXNy4rK7yuroeTPRaCpsQFk1VxVXV1ZXdnU1NDR3rYieqPLMqJE5I3DCN2QNLulKFcn0jI7slRsRDrR7RZ6/PFjey%2b1QSszyHkqtBPJfpGnvY2bkClDI6muDnglQ67lqf01/qkbtpvNPRDT6tq65paWHiigvdDRQLdlreZQReDxoGfI6baOzub2dsjpzp5uWNDWBWf6bojGfwNs1h2yBPx2UgAAAABJRU5ErkJggg==' /%3e%3c/svg%3e"},"private":0}}]},"memberships":{"edges":[{"node":{"id":"cloud","title":"cloud","path":"/team/memberships/cloud/"}},{"node":{"id":"foundation","title":"foundation","path":"/team/memberships/foundation/"}},{"node":{"id":"tech","title":"tech","path":"/team/memberships/tech/"}}]}},"context":{}}